%YAML 1.1
%TAG !u! tag:unity3d.com,2011:
--- !u!1045 &1
EditorBuildSettings:
  m_ObjectHideFlags: 0
  serializedVersion: 2
  m_Scenes:
  - enabled: 1
    path: Assets/Scenes/Persistent.unity
    guid: 1cf738dc6475e5140b221d591fdef0e8
  - enabled: 1
    path: Assets/Scenes/Menu.unity
    guid: dd05e18cc7c5e534cb879cd6468fcef2
  - enabled: 1
    path: Assets/Scenes/Game.unity
    guid: 2cda990e2423bbf4892e6590ba056729
  m_configObjects: {}
