%YAML 1.1
%TAG !u! tag:unity3d.com,2011:
--- !u!114 &11400000
MonoBehaviour:
  m_ObjectHideFlags: 0
  m_CorrespondingSourceObject: {fileID: 0}
  m_PrefabInstance: {fileID: 0}
  m_PrefabAsset: {fileID: 0}
  m_GameObject: {fileID: 0}
  m_Enabled: 1
  m_EditorHideFlags: 0
  m_Script: {fileID: 11500000, guid: 2218de3019930e94fb816125b5cfe6ff, type: 3}
  m_Name: 9mm
  m_EditorClassIdentifier: 
  name: 9mm
  maxAmount: 20
  damage: 10
  prefabObject: {fileID: 7393816202958446167, guid: 376b514282de010429c417d9d9313e2b, type: 3}
