%YAML 1.1
%TAG !u! tag:unity3d.com,2011:
--- !u!114 &11400000
MonoBehaviour:
  m_ObjectHideFlags: 0
  m_CorrespondingSourceObject: {fileID: 0}
  m_PrefabInstance: {fileID: 0}
  m_PrefabAsset: {fileID: 0}
  m_GameObject: {fileID: 0}
  m_Enabled: 1
  m_EditorHideFlags: 0
  m_Script: {fileID: 11500000, guid: e9dc6d90ec81db04c8cb212e914f99b9, type: 3}
  m_Name: EnemyShotgun
  m_EditorClassIdentifier: 
  name: Shotgun
  ammoType: 12Gauge
  clipSize: 2
  image: {fileID: 6407226241554960098, guid: 2fbb034636e53d84b938350aa122b47d, type: 3}
  bullet: {fileID: 11400000, guid: 4127f110e038de140b6fd5b372f53426, type: 2}
